…
``` r
meta_spoink <- inner_join(sech_more_meta, spoink, by="ID") %>% filter(location %in% c("Denis","PNF")) %>% filter(!(ID %in% c("SRR5860639", "SRR5860640", "SRR5860626")))
(tib_spoink <- different_thresholds(meta_spoink, 50))
```

    ## # A tibble: 59 × 5
    ##    location SNP                 thr perc_shared_in_pop number_external
    ##    <chr>    <chr>             <dbl>              <dbl>           <int>
    ##  1 PNF      gypsy-7-sim1_2640   0.5              1                   0
    ##  2 PNF      gypsy-7-sim1_4414   0.5              0.857               0
    ##  3 PNF      gypsy-7-sim1_4629   0.5              0.857               1
    ##  4 PNF      gypsy-7-sim1_4333   0.9              0.714               1
    ##  5 PNF      gypsy-7-sim1_4440   0.9              1                   0
    ##  6 Denis    gypsy-7-sim1_415    0.7              0.8                 0
    ##  7 Denis    gypsy-7-sim1_2897   0.8              0.8                 0
    ##  8 Denis    gypsy-7-sim1_3731   0.8              0.8                 0
    ##  9 Denis    gypsy-7-sim1_333    0.9              0.867               0
    ## 10 Denis    gypsy-7-sim1_1556   0.9              0.667               0
    ## # ℹ 49 more rows
…
