…
``` r
dsec_csv <- read_csv("/Volumes/EXT-RICCARDO/DoubleTrouble/Dsec/time-series/dsec.csv", show_col_types = FALSE) %>% filter(Sample!="Sample")

(dsec_metadata <- read_tsv("/Volumes/EXT-RICCARDO/DoubleTrouble/Dsec/metadata.txt", show_col_types = FALSE))
```

    ## # A tibble: 47 × 6
    ##    Sample     library_name island     lat  long  year
    ##    <chr>      <chr>        <chr>    <dbl> <dbl> <dbl>
    ##  1 SRR5860583 PNF4         Praslin  -4.32  55.7  2012
    ##  2 SRR5860625 DenisNF155   Denis    -3.81  55.7  2012
    ##  3 SRR5860626 DenisNoni10  Denis    -3.81  55.7  2012
    ##  4 SRR5860628 DenisNoni60  Denis    -3.81  55.7  2012
    ##  5 SRR5860631 Denis124     Denis    -3.81  55.7  2012
    ##  6 SRR5860632 Denis7_2     Denis    -3.81  55.7  2012
    ##  7 SRR5860645 Anro_B7      Mahé     -4.73  55.5  2012
    ##  8 SRR5860656 LD16         La Digue -4.36  55.8  2012
    ##  9 SRR5860659 mariane_1    Mariane  -4.34  55.9  2012
    ## 10 SRR5860661 Anro_B2      Mahé     -4.73  55.5  2012
    ## # ℹ 37 more rows
…
    ## 
    ## ── Column specification ────────────────────────────────────────────────────────
    ## cols(
    ##   Sample = col_character(),
    ##   library_name = col_character(),
    ##   island = col_character(),
    ##   TE = col_character(),
    ##   All_reads = col_double(),
    ##   HQ_reads = col_double()
    ## )

    ## # A tibble: 47 × 10
    ##    Sample     library_name island    lat  long  year `P-element` Shellder Spoink
    ##    <chr>      <chr>        <chr>   <dbl> <dbl> <dbl> <chr>       <chr>    <chr> 
    ##  1 SRR5860583 PNF4         Praslin -4.32  55.7  2012 absent      present  prese…
    ##  2 SRR5860625 DenisNF155   Denis   -3.81  55.7  2012 absent      present  prese…
    ##  3 SRR5860626 DenisNoni10  Denis   -3.81  55.7  2012 absent      absent   absent
    ##  4 SRR5860628 DenisNoni60  Denis   -3.81  55.7  2012 absent      present  prese…
    ##  5 SRR5860631 Denis124     Denis   -3.81  55.7  2012 absent      present  prese…
    ##  6 SRR5860632 Denis7_2     Denis   -3.81  55.7  2012 absent      present  prese…
    ##  7 SRR5860645 Anro_B7      Mahé    -4.73  55.5  2012 absent      absent   absent
    ##  8 SRR5860656 LD16         La Dig… -4.36  55.8  2012 absent      absent   absent
    ##  9 SRR5860659 mariane_1    Mariane -4.34  55.9  2012 absent      absent   absent
    ## 10 SRR5860661 Anro_B2      Mahé    -4.73  55.5  2012 absent      absent   absent
    ## # ℹ 37 more rows
    ## # ℹ 1 more variable: presence <chr>
…
