…
``` r
(sim <- sim_RM %>% select(te, contig, strand, start, end, qstart, qend, div) %>% mutate(telen = ifelse(te=="Spoink", 5216, 6635), fraglen = end-start, lenfraction = fraglen/telen))
```

    ## # A tibble: 1,491 × 11
    ##    te       contig         strand  start    end qstart  qend   div telen fraglen
    ##    <chr>    <chr>          <chr>   <dbl>  <dbl>  <dbl> <dbl> <dbl> <dbl>   <dbl>
    ##  1 Shellder tig00000001_p… C      2.92e5 2.92e5   5949   686  16.7  6635      53
    ##  2 Shellder tig00000001_p… C      4.72e5 4.72e5   5950   685  12.5  6635      55
    ##  3 Shellder tig00000001_p… C      8.45e5 8.45e5   5948   687  22.1  6635      67
    ##  4 Shellder tig00000001_p… C      8.46e5 8.46e5   5950   685  19.7  6635      95
    ##  5 Shellder tig00000001_p… C      1.18e6 1.18e6   5934   701  27.1  6635      84
    ##  6 Shellder tig00000001_p… +      1.20e6 1.20e6    599   690  19.6  6635      92
    ##  7 Shellder tig00000001_p… +      1.20e6 1.20e6    595   702  19.7  6635     111
    ##  8 Shellder tig00000001_p… +      1.20e6 1.20e6    598   695  21.0  6635     114
    ##  9 Shellder tig00000001_p… C      1.27e6 1.27e6   5945   690  12.3  6635      56
    ## 10 Shellder tig00000001_p… C      1.53e6 1.53e6   5934   701  27.1  6635      84
    ## # ℹ 1,481 more rows
    ## # ℹ 1 more variable: lenfraction <dbl>
…
    ## Warning: 3770 parsing failures.
    ## row col   expected     actual                                                                 file
    ##   1  -- 14 columns 15 columns '/Volumes/EXT-RICCARDO/DoubleTrouble/Dmau/RM/D.sim.sz129.fa.ori.out'
    ##   2  -- 14 columns 15 columns '/Volumes/EXT-RICCARDO/DoubleTrouble/Dmau/RM/D.sim.sz129.fa.ori.out'
    ##   3  -- 14 columns 15 columns '/Volumes/EXT-RICCARDO/DoubleTrouble/Dmau/RM/D.sim.sz129.fa.ori.out'
    ##   4  -- 14 columns 15 columns '/Volumes/EXT-RICCARDO/DoubleTrouble/Dmau/RM/D.sim.sz129.fa.ori.out'
    ##   5  -- 14 columns 15 columns '/Volumes/EXT-RICCARDO/DoubleTrouble/Dmau/RM/D.sim.sz129.fa.ori.out'
    ## ... ... .......... .......... ....................................................................
    ## See problems(...) for more details.

    ## # A tibble: 21 × 4
    ##    te       contig         begin      end
    ##    <chr>    <chr>          <dbl>    <dbl>
    ##  1 Spoink   tig00000001  4976343  4981554
    ##  2 Spoink   tig00000001 25213495 25218023
    ##  3 Spoink   tig00000015  5679564  5683582
    ##  4 Spoink   tig00000022  3009534  3014065
    ##  5 Shellder tig00000022 13905210 13911837
    ##  6 Shellder tig00000045   267187   273808
    ##  7 Spoink   tig00000046    27295    31560
    ##  8 Shellder tig00000048   280699   284801
    ##  9 Shellder tig00000048   370173   373922
    ## 10 Shellder tig00000056    51958    56552
    ## # ℹ 11 more rows
…
    ## Warning: 7373 parsing failures.
    ## row col   expected     actual                                                                           file
    ##   1  -- 14 columns 15 columns '/Volumes/EXT-RICCARDO/DoubleTrouble/Dmau/RM/mau/D.mau.r31.fa.ori.out.renamed'
    ##   2  -- 14 columns 15 columns '/Volumes/EXT-RICCARDO/DoubleTrouble/Dmau/RM/mau/D.mau.r31.fa.ori.out.renamed'
    ##   3  -- 14 columns 15 columns '/Volumes/EXT-RICCARDO/DoubleTrouble/Dmau/RM/mau/D.mau.r31.fa.ori.out.renamed'
    ##   4  -- 14 columns 15 columns '/Volumes/EXT-RICCARDO/DoubleTrouble/Dmau/RM/mau/D.mau.r31.fa.ori.out.renamed'
    ##   5  -- 14 columns 15 columns '/Volumes/EXT-RICCARDO/DoubleTrouble/Dmau/RM/mau/D.mau.r31.fa.ori.out.renamed'
    ## ... ... .......... .......... ..............................................................................
    ## See problems(...) for more details.

    ## # A tibble: 31 × 4
    ##    te       contig         begin      end
    ##    <chr>    <chr>          <dbl>    <dbl>
    ##  1 Spoink   contig_1030   121472   126680
    ##  2 Shellder contig_1093   157459   164096
    ##  3 Spoink   contig_2      288879   294192
    ##  4 Shellder contig_262    444336   450975
    ##  5 Spoink   contig_266    131010   135714
    ##  6 Shellder contig_296   2703552  2710191
    ##  7 Shellder contig_296   4194402  4201039
    ##  8 Spoink   contig_296   8661348  8666057
    ##  9 Shellder contig_296  10424995 10431634
    ## 10 Spoink   contig_296  18130913 18135584
    ## # ℹ 21 more rows
…
