…
    ## Warning: 92 parsing failures.
    ##  row         col           expected actual                                                                                             file
    ## 1295 trunc_left  1/0/T/F/TRUE/FALSE  0.316 '/Volumes/EXT-RICCARDO/DoubleTrouble/Dsim/time-series/deviaTE/SRR22548187.fastq.sort.bam.spoink'
    ## 2061 trunc_right 1/0/T/F/TRUE/FALSE  0.406 '/Volumes/EXT-RICCARDO/DoubleTrouble/Dsim/time-series/deviaTE/SRR22548187.fastq.sort.bam.spoink'
    ## 2097 trunc_right 1/0/T/F/TRUE/FALSE  0.293 '/Volumes/EXT-RICCARDO/DoubleTrouble/Dsim/time-series/deviaTE/SRR22548187.fastq.sort.bam.spoink'
    ## 2114 trunc_left  1/0/T/F/TRUE/FALSE  1.827 '/Volumes/EXT-RICCARDO/DoubleTrouble/Dsim/time-series/deviaTE/SRR22548187.fastq.sort.bam.spoink'
    ## 2190 trunc_right 1/0/T/F/TRUE/FALSE  0.18  '/Volumes/EXT-RICCARDO/DoubleTrouble/Dsim/time-series/deviaTE/SRR22548187.fastq.sort.bam.spoink'
    ## .... ........... .................. ...... ................................................................................................
    ## See problems(...) for more details.

    ## # A tibble: 2,258 × 3
    ##    TE      base   cov
    ##    <chr>  <dbl> <dbl>
    ##  1 spoink   297 0.519
    ##  2 spoink   298 0.519
    ##  3 spoink   299 0.519
    ##  4 spoink   300 0.519
    ##  5 spoink   301 0.519
    ##  6 spoink   302 0.519
    ##  7 spoink   303 0.519
    ##  8 spoink   304 0.519
    ##  9 spoink   305 0.564
    ## 10 spoink   306 0.541
    ## # ℹ 2,248 more rows
…
    ##   .default = col_double(),
    ##   TE = col_character(),
    ##   file = col_character(),
    ##   ref = col_character(),
    ##   snp = col_logical(),
    ##   refsnp = col_logical(),
    ##   int_del = col_logical(),
    ##   int_del_freq = col_logical(),
    ##   ins = col_logical(),
    ##   delet = col_character(),
    ##   annotation = col_logical()
    ## )
    ## ℹ Use `spec()` for the full column specifications.

    ## # A tibble: 83 × 3
    ##    TE        base   cov
    ##    <chr>    <dbl> <dbl>
    ##  1 Shellder   608 0.541
    ##  2 Shellder   609 0.722
    ##  3 Shellder   610 0.722
    ##  4 Shellder   611 0.902
    ##  5 Shellder   612 1.08 
    ##  6 Shellder   613 1.44 
    ##  7 Shellder   614 1.44 
    ##  8 Shellder   615 1.53 
    ##  9 Shellder   616 1.53 
    ## 10 Shellder   617 1.53 
    ## # ℹ 73 more rows
…
    ## Warning: 92 parsing failures.
    ##  row         col           expected actual                                                                                             file
    ## 1295 trunc_left  1/0/T/F/TRUE/FALSE  0.316 '/Volumes/EXT-RICCARDO/DoubleTrouble/Dsim/time-series/deviaTE/SRR22548187.fastq.sort.bam.spoink'
    ## 2061 trunc_right 1/0/T/F/TRUE/FALSE  0.406 '/Volumes/EXT-RICCARDO/DoubleTrouble/Dsim/time-series/deviaTE/SRR22548187.fastq.sort.bam.spoink'
    ## 2097 trunc_right 1/0/T/F/TRUE/FALSE  0.293 '/Volumes/EXT-RICCARDO/DoubleTrouble/Dsim/time-series/deviaTE/SRR22548187.fastq.sort.bam.spoink'
    ## 2114 trunc_left  1/0/T/F/TRUE/FALSE  1.827 '/Volumes/EXT-RICCARDO/DoubleTrouble/Dsim/time-series/deviaTE/SRR22548187.fastq.sort.bam.spoink'
    ## 2190 trunc_right 1/0/T/F/TRUE/FALSE  0.18  '/Volumes/EXT-RICCARDO/DoubleTrouble/Dsim/time-series/deviaTE/SRR22548187.fastq.sort.bam.spoink'
    ## .... ........... .................. ...... ................................................................................................
    ## See problems(...) for more details.

    ## # A tibble: 3,930 × 3
    ##    TE      base   cov
    ##    <chr>  <dbl> <dbl>
    ##  1 spoink    41 0.316
    ##  2 spoink    42 0.316
    ##  3 spoink    43 0.316
    ##  4 spoink    44 0.316
    ##  5 spoink    45 0.316
    ##  6 spoink    46 0.316
    ##  7 spoink    47 0.316
    ##  8 spoink    48 0.338
    ##  9 spoink    49 0.338
    ## 10 spoink    50 0.338
    ## # ℹ 3,920 more rows
…
    ##   .default = col_double(),
    ##   TE = col_character(),
    ##   file = col_character(),
    ##   ref = col_character(),
    ##   snp = col_logical(),
    ##   refsnp = col_logical(),
    ##   int_del = col_logical(),
    ##   int_del_freq = col_logical(),
    ##   ins = col_logical(),
    ##   delet = col_character(),
    ##   annotation = col_logical()
    ## )
    ## ℹ Use `spec()` for the full column specifications.

    ## # A tibble: 683 × 3
    ##    TE        base   cov
    ##    <chr>    <dbl> <dbl>
    ##  1 Shellder    33 0.045
    ##  2 Shellder    34 0.045
    ##  3 Shellder    35 0.045
    ##  4 Shellder    36 0.045
    ##  5 Shellder    37 0.045
    ##  6 Shellder    38 0.045
    ##  7 Shellder    39 0.045
    ##  8 Shellder    40 0.045
    ##  9 Shellder    41 0.045
    ## 10 Shellder    42 0.045
    ## # ℹ 673 more rows
…
