…
  list(pc1_2 = plot1, pc1_3 = plot2, pc2_3 = plot3, pc1_4 = plot4, pc2_4 = plot5, pc3_4 = plot6, pc_bonus = plot_bonus)
}
```

## Drosophila sechellia

``` r
dsec_csv <- read_csv("/Volumes/EXT-RICCARDO/DoubleTrouble/Dsec/time-series/dsec.csv", show_col_types = FALSE) %>% filter(Sample!="Sample")

(dsec_metadata <- read_tsv("/Volumes/EXT-RICCARDO/DoubleTrouble/Dsec/metadata.txt", show_col_types = FALSE))
```

    ## # A tibble: 47 × 6
    ##    Sample     library_name island     lat  long  year
    ##    <chr>      <chr>        <chr>    <dbl> <dbl> <dbl>
    ##  1 SRR5860583 PNF4         Praslin  -4.32  55.7  2012
    ##  2 SRR5860625 DenisNF155   Denis    -3.81  55.7  2012
    ##  3 SRR5860626 DenisNoni10  Denis    -3.81  55.7  2012
    ##  4 SRR5860628 DenisNoni60  Denis    -3.81  55.7  2012
    ##  5 SRR5860631 Denis124     Denis    -3.81  55.7  2012
    ##  6 SRR5860632 Denis7_2     Denis    -3.81  55.7  2012
    ##  7 SRR5860645 Anro_B7      Mahé     -4.73  55.5  2012
    ##  8 SRR5860656 LD16         La Digue -4.36  55.8  2012
    ##  9 SRR5860659 mariane_1    Mariane  -4.34  55.9  2012
    ## 10 SRR5860661 Anro_B2      Mahé     -4.73  55.5  2012
    ## # ℹ 37 more rows
…
``` r
#ggsave("/Volumes/EXT-RICCARDO/DoubleTrouble/figures/sup-figures/dsec-TE-pca/dsec-shellder-pca.png", pca_shellder$pc1_2, dpi=300)
#ggsave("/Volumes/EXT-RICCARDO/DoubleTrouble/figures/sup-figures/dsec-TE-pca/dsec-spoink-pca.png", pca_spoink$pc1_2, dpi=300)
```

## Drosophila melanogaster

min-freq 0.2 min-count 10

``` r
dmel_scale <- c("#F8766D","#A3A500","#00BF7D","#00B0F6","#E76BF3")
(dmel_metadata <- read_tsv("/Volumes/Storage/dmel-full-story/metadata.tsv", show_col_types = FALSE))
```

    ## # A tibble: 585 × 9
    ##    Sample      strain   publication    study study_id  year location lat     lon
    ##    <chr>       <chr>    <chr>          <chr> <chr>    <dbl> <chr>    <chr> <dbl>
    ##  1 SRR23876563 H10      https://doi.o… PRJN… Shpak20…  1815 Lund, S… 55       13
    ##  2 SRR23876564 H4       https://doi.o… PRJN… Shpak20…  1815 Lund, S… 55       13
    ##  3 SRR23876566 H6       https://doi.o… PRJN… Shpak20…  1815 Smaland… 60       15
    ##  4 SRR23876582 H13      https://doi.o… PRJN… Shpak20…  1815 Lund, S… 55       13
    ##  5 SRR23876583 H12      https://doi.o… PRJN… Shpak20…  1815 Lund, S… 55       13
    ##  6 SRR23876584 H11      https://doi.o… PRJN… Shpak20…  1815 Lund, S… 55       13
    ##  7 SRR23876562 H9       https://doi.o… PRJN… Shpak20…  1850 Passau,… 49       13
    ##  8 SRR23876569 H25      https://doi.o… PRJN… Shpak20…  1850 Passau,… 49       13
    ##  9 SRR23876565 H5       https://doi.o… PRJN… Shpak20…  1875 Zealand… 55       12
    ## 10 ERR6474638  Oregon-R https://doi.o… PRJN… Burny20…  1925 <NA>     <NA>     NA
    ## # ℹ 575 more rows
…
    ## Rows: 86 Columns: 15
    ## ── Column specification ────────────────────────────────────────────────────────
    ## Delimiter: "\t"
    ## chr  (1): ID
    ## dbl (14): gypsy-7-sim1_21, gypsy-7-sim1_87, gypsy-7-sim1_1167, gypsy-7-sim1_...
    ## 
    ## ℹ Use `spec()` to retrieve the full column specification for this data.
    ## ℹ Specify the column types or set `show_col_types = FALSE` to quiet this message.

``` r
(spoink_pcaable_dmel <- inner_join(dmel_metadata, spoink_dmel, by="Sample") %>% filter(strain != "ZS10"))
```

    ## # A tibble: 85 × 23
    ##    Sample     strain publication       study study_id  year location lat     lon
    ##    <chr>      <chr>  <chr>             <chr> <chr>    <dbl> <chr>    <chr> <dbl>
    ##  1 SRR1663598 ZH23   https://doi.org/… PRJN… Grenier…  1993 Zimbabwe -19      29
    ##  2 SRR1663599 ZH26   https://doi.org/… PRJN… Grenier…  1993 Zimbabwe -19      29
    ##  3 SRR1663600 ZH33   https://doi.org/… PRJN… Grenier…  1993 Zimbabwe -19      29
    ##  4 SRR1663601 ZH42   https://doi.org/… PRJN… Grenier…  1993 Zimbabwe -19      29
    ##  5 SRR1663603 ZW09   https://doi.org/… PRJN… Grenier…  1993 Zimbabwe -19      29
    ##  6 SRR1663604 ZW139  https://doi.org/… PRJN… Grenier…  1993 Zimbabwe -19      29
    ##  7 SRR1663605 ZW140  https://doi.org/… PRJN… Grenier…  1993 Zimbabwe -19      29
    ##  8 SRR1663606 ZW142  https://doi.org/… PRJN… Grenier…  1993 Zimbabwe -19      29
    ##  9 SRR1663607 ZW144  https://doi.org/… PRJN… Grenier…  1993 Zimbabwe -19      29
    ## 10 SRR1663608 ZW155  https://doi.org/… PRJN… Grenier…  1993 Zimbabwe -19      29
    ## # ℹ 75 more rows
    ## # ℹ 14 more variables: `gypsy-7-sim1_21` <dbl>, `gypsy-7-sim1_87` <dbl>,
    ## #   `gypsy-7-sim1_1167` <dbl>, `gypsy-7-sim1_1644` <dbl>,
    ## #   `gypsy-7-sim1_2429` <dbl>, `gypsy-7-sim1_2432` <dbl>,
    ## #   `gypsy-7-sim1_2439` <dbl>, `gypsy-7-sim1_2453` <dbl>,
    ## #   `gypsy-7-sim1_3124` <dbl>, `gypsy-7-sim1_3569` <dbl>,
    ## #   `gypsy-7-sim1_3593` <dbl>, `gypsy-7-sim1_4333` <dbl>, …
…
    ## Rows: 94 Columns: 302

    ## ── Column specification ────────────────────────────────────────────────────────
    ## Delimiter: "\t"
    ## chr   (1): ID
    ## dbl (301): spoink_272, spoink_790, spoink_795, spoink_813, spoink_814, spoin...
    ## 
    ## ℹ Use `spec()` to retrieve the full column specification for this data.
    ## ℹ Specify the column types or set `show_col_types = FALSE` to quiet this message.

``` r
(spoink_pcaable_dsim <- inner_join(dsim, spoink_dsim, by="Sample"))
```

    ## # A tibble: 63 × 310
    ##    Sample      strain publication      study study_id  year location   lat   lon
    ##    <chr>       <chr>  <chr>            <chr> <chr>    <dbl> <fct>    <dbl> <dbl>
    ##  1 SRR22548196 Tan96  https://doi.org… PRJN… Courret…  1996 Tanzania    -5    35
    ##  2 SRR22548177 Zim97  https://doi.org… PRJN… Courret…  1997 Zimbabwe   -18    30
    ##  3 ERR668322   MD225a https://doi.org… PRJE… Signor2…  2002 Madagas…   -19    46
    ##  4 ERR668323   MD225b https://doi.org… PRJE… Signor2…  2002 Madagas…   -19    46
    ##  5 ERR668324   MD235  https://doi.org… PRJE… Signor2…  2002 Madagas…   -19    46
    ##  6 ERR668317   MD72   https://doi.org… PRJE… Signor2…  2002 Madagas…   -19    46
    ##  7 ERR668318   MD146  https://doi.org… PRJE… Signor2…  2002 Madagas…   -19    46
    ##  8 ERR668320   MD201  https://doi.org… PRJE… Signor2…  2002 Madagas…   -19    46
    ##  9 ERR668321   MD224  https://doi.org… PRJE… Signor2…  2002 Madagas…   -19    46
    ## 10 ERR668325   MD238  https://doi.org… PRJE… Signor2…  2002 Madagas…   -19    46
    ## # ℹ 53 more rows
    ## # ℹ 301 more variables: spoink_272 <dbl>, spoink_790 <dbl>, spoink_795 <dbl>,
    ## #   spoink_813 <dbl>, spoink_814 <dbl>, spoink_815 <dbl>, spoink_819 <dbl>,
    ## #   spoink_828 <dbl>, spoink_837 <dbl>, spoink_1278 <dbl>, spoink_1287 <dbl>,
    ## #   spoink_1290 <dbl>, spoink_1293 <dbl>, spoink_1303 <dbl>, spoink_1314 <dbl>,
    ## #   spoink_1315 <dbl>, spoink_1316 <dbl>, spoink_1324 <dbl>, spoink_1326 <dbl>,
    ## #   spoink_1344 <dbl>, spoink_1350 <dbl>, spoink_1356 <dbl>, …
…
    ## Rows: 94 Columns: 26
    ## ── Column specification ────────────────────────────────────────────────────────
    ## Delimiter: "\t"
    ## chr  (1): ID
    ## dbl (25): Shellder_147, Shellder_288, Shellder_369, Shellder_452, Shellder_5...
    ## 
    ## ℹ Use `spec()` to retrieve the full column specification for this data.
    ## ℹ Specify the column types or set `show_col_types = FALSE` to quiet this message.

``` r
(shellder_pcaable_dsim <- inner_join(dsim, shellder_dsim, by="Sample"))
```

    ## # A tibble: 63 × 34
    ##    Sample      strain publication      study study_id  year location   lat   lon
    ##    <chr>       <chr>  <chr>            <chr> <chr>    <dbl> <fct>    <dbl> <dbl>
    ##  1 SRR22548196 Tan96  https://doi.org… PRJN… Courret…  1996 Tanzania    -5    35
    ##  2 SRR22548177 Zim97  https://doi.org… PRJN… Courret…  1997 Zimbabwe   -18    30
    ##  3 ERR668322   MD225a https://doi.org… PRJE… Signor2…  2002 Madagas…   -19    46
    ##  4 ERR668323   MD225b https://doi.org… PRJE… Signor2…  2002 Madagas…   -19    46
    ##  5 ERR668324   MD235  https://doi.org… PRJE… Signor2…  2002 Madagas…   -19    46
    ##  6 ERR668317   MD72   https://doi.org… PRJE… Signor2…  2002 Madagas…   -19    46
    ##  7 ERR668318   MD146  https://doi.org… PRJE… Signor2…  2002 Madagas…   -19    46
    ##  8 ERR668320   MD201  https://doi.org… PRJE… Signor2…  2002 Madagas…   -19    46
    ##  9 ERR668321   MD224  https://doi.org… PRJE… Signor2…  2002 Madagas…   -19    46
    ## 10 ERR668325   MD238  https://doi.org… PRJE… Signor2…  2002 Madagas…   -19    46
    ## # ℹ 53 more rows
    ## # ℹ 25 more variables: Shellder_147 <dbl>, Shellder_288 <dbl>,
    ## #   Shellder_369 <dbl>, Shellder_452 <dbl>, Shellder_563 <dbl>,
    ## #   Shellder_625 <dbl>, Shellder_627 <dbl>, Shellder_632 <dbl>,
    ## #   Shellder_635 <dbl>, Shellder_658 <dbl>, Shellder_662 <dbl>,
    ## #   Shellder_707 <dbl>, Shellder_1811 <dbl>, Shellder_1870 <dbl>,
    ## #   Shellder_1972 <dbl>, Shellder_2017 <dbl>, Shellder_2749 <dbl>, …
…
